{
    "prepare_queue": {
        "installed": [],
        "uninstalled": []
    },
    "config_munge": {
        "files": {
            "config.xml": {
                "parents": {
                    "/*": [
                        {
                            "xml": "<feature name=\"Keyboard\"><param name=\"ios-package\" onload=\"true\" value=\"IonicKeyboard\" /></feature>",
                            "count": 1
                        },
                        {
                            "xml": "<feature name=\"Console\"><param name=\"ios-package\" value=\"CDVLogger\" /></feature>",
                            "count": 1
                        },
                        {
                            "xml": "<feature name=\"Device\"><param name=\"ios-package\" value=\"CDVDevice\" /></feature>",
                            "count": 1
                        },
                        {
                            "xml": "<feature name=\"Geolocation\"><param name=\"ios-package\" value=\"CDVLocation\" /></feature>",
                            "count": 1
                        },
                        {
                            "xml": "<feature name=\"SplashScreen\"><param name=\"ios-package\" value=\"CDVSplashScreen\" /><param name=\"onload\" value=\"true\" /></feature>",
                            "count": 1
                        }
                    ]
                }
            },
            "framework": {
                "parents": {
                    "CoreLocation.framework": [
                        {
                            "xml": false,
                            "count": 1
                        }
                    ],
                    "CoreGraphics.framework": [
                        {
                            "xml": false,
                            "count": 1
                        }
                    ]
                }
            },
            "*-Info.plist": {
                "parents": {
                    "NSLocationWhenInUseUsageDescription": [
                        {
                            "xml": "<string />",
                            "count": 1
                        }
                    ]
                }
            }
        }
    },
    "installed_plugins": {
        "com.ionic.keyboard": {
            "PACKAGE_NAME": "com.ionicframework.footfall850009"
        },
        "cordova-plugin-console": {
            "PACKAGE_NAME": "com.ionicframework.footfall850009"
        },
        "cordova-plugin-device": {
            "PACKAGE_NAME": "com.ionicframework.footfall850009"
        },
        "cordova-plugin-geolocation": {
            "PACKAGE_NAME": "com.ionicframework.footfall850009"
        },
        "cordova-plugin-splashscreen": {
            "PACKAGE_NAME": "com.ionicframework.footfall850009"
        },
        "cordova-plugin-whitelist": {
            "PACKAGE_NAME": "com.ionicframework.footfall850009"
        }
    },
    "dependent_plugins": {}
}