{
  "stands": [
    {
      "id": 0,
      "name": "IT Service Desk and Deskside Services",
      "lead": "Mary McCumber",
      "team": "ITO",
      "umbrella": "End-to-End Effectiveness",
      "icon": "End-to-End-Effectiveness.png"
    },
    {
      "id": 1,
      "name": "IT Operations Control Function and Monitoring",
      "lead": "Angela Marcuccilli",
      "team": "ITO",
      "umbrella": "End-to-End Effectiveness",
      "icon": "End-to-End-Effectiveness.png"
    },
    {
      "id": 2,
      "name": "IT Ford College Graduate Program (FCG)",
      "lead": "Rachel Plafchan",
      "team": "Others",
      "umbrella": "Culture",
      "icon": "Culture.png"
    },
    {
      "id": 3,
      "name": "What's the 'Next Big Thing'?",
      "lead": "Tim de Vries",
      "team": "Others",
      "umbrella": "Innovation",
      "icon": "Innovation.png"
    },
    {
      "id": 4,
      "name": "How Can You 'Be Innovative'?",
      "lead": "Tim de Vries",
      "team": "Others",
      "umbrella": "Innovation",
      "icon": "Innovation.png"
    },
    {
      "id": 5,
      "name": "ITO Demand Management",
      "lead": "Andrew Mullin",
      "team": "ITO",
      "umbrella": "End-to-End Effectiveness",
      "icon": "End-to-End-Effectiveness.png"
    },
    {
      "id": 6,
      "name": "Problem Management",
      "lead": "Divyesh Shah",
      "team": "ITO",
      "umbrella": "End-to-End Effectiveness",
      "icon": "End-to-End-Effectiveness.png"
    },
    {
      "id": 7,
      "name": "IT Operating Model",
      "lead": "Karen Malinak",
      "team": "OCIO",
      "umbrella": "End-to-End Effectiveness",
      "icon": "End-to-End-Effectiveness.png"
    },
    {
      "id": 8,
      "name": "Learning Chinese Culture",
      "lead": "Wei Shi",
      "team": "Others",
      "umbrella": "Culture",
      "icon": "Culture.png"
    },
    {
      "id": 9,
      "name": "Ford Employees Recreation Association (FERA)",
      "lead": "Joe Pellegrino",
      "team": "Others",
      "umbrella": "Culture",
      "icon": "Culture.png"
    },
    {
      "id": 10,
      "name": "ITO Business Office and Strategy Team",
      "lead": "Robyn Ritzema",
      "team": "ITO",
      "umbrella": "End-to-End Effectiveness",
      "icon": "End-to-End-Effectiveness.png"
    },
    {
      "id": 11,
      "name": "SharePoint Next Version",
      "lead": "Tracy Degarmo",
      "team": "ITO",
      "umbrella": "Enterprise Architecture",
      "icon": "Enterprise-Architecture.png"
    },
    {
      "id": 12,
      "name": "Enterprise File Synchronization and Sharing (EFSS)",
      "lead": "Jennifer Kalman",
      "team": "ITO",
      "umbrella": "Enterprise Architecture",
      "icon": "Enterprise-Architecture.png"
    },
    {
      "id": 13,
      "name": "Digital Worker",
      "lead": "Lu Kalaj",
      "team": "ITO",
      "umbrella": "End-to-End Effectiveness",
      "icon": "End-to-End-Effectiveness.png"
    },
    {
      "id": 14,
      "name": "IT Communications",
      "lead": "Robert North",
      "team": "Others",
      "umbrella": "Culture",
      "icon": "Culture.png"
    },
    {
      "id": 15,
      "name": "Enterprise Architecture - Blueprints & Business Linkage",
      "lead": "Marty Christensen",
      "team": "OCIO",
      "umbrella": "Enterprise Architecture",
      "icon": "Enterprise-Architecture.png"
    },
    {
      "id": 16,
      "name": "Global Bureaucracy Reduction (GBR)",
      "lead": "Ted Bower",
      "team": "OCIO",
      "umbrella": "Agile IT",
      "icon": "Agile-IT.png"
    },
    {
      "id": 17,
      "name": "Come and Discover Agile IT",
      "lead": "Richard Levine",
      "team": "OCIO",
      "umbrella": "Agile IT",
      "icon": "Agile-IT.png"
    },
    {
      "id": 18,
      "name": "EPMO - PM Consulting & Process",
      "lead": "Diane Davis",
      "team": "OCIO",
      "umbrella": "Agile IT",
      "icon": "Agile-IT.png"
    },
    {
      "id": 19,
      "name": "SDM - What's Under the Hood?",
      "lead": "Bala Balakrishnan",
      "team": "AD",
      "umbrella": "Agile IT",
      "icon": "Agile-IT.png"
    },
    {
      "id": 20,
      "name": "Agile and Software Craftsman Coaching - Agile COE",
      "lead": "Andrew Brown",
      "team": "AD",
      "umbrella": "Agile IT",
      "icon": "Agile-IT.png"
    },
    {
      "id": 21,
      "name": "Ford's Modern Software Development Ecosystem",
      "lead": "Mark Garrett",
      "team": "AD",
      "umbrella": "Agile IT",
      "icon": "Agile-IT.png"
    },
    {
      "id": 22,
      "name": "Infrastructure Customer Solution Service (iCSS)",
      "lead": "Peter Shah",
      "team": "ITO",
      "umbrella": "End-to-End Effectiveness",
      "icon": "End-to-End-Effectiveness.png"
    },
    {
      "id": 23,
      "name": "Securing Partnerships (Joint Ventures & Suppliers)",
      "lead": "Robert Rosiewicz",
      "team": "ITO",
      "umbrella": "Security & Compliance",
      "icon": "Security-&-Compliance.png"
    },
    {
      "id": 24,
      "name": "HPC & Hadoop Operations",
      "lead": "Christopher Penney",
      "team": "ITO",
      "umbrella": "Enterprise Architecture",
      "icon": "Enterprise-Architecture.png"
    },
    {
      "id": 25,
      "name": "OrgCM Team Development Book Club",
      "lead": "Paul Moreton",
      "team": "AD",
      "umbrella": "Culture",
      "icon": "Culture.png"
    },
    {
      "id": 26,
      "name": "RLIS Library",
      "lead": "Meng Zhang",
      "team": "TBA",
      "umbrella": "Multiple",
      "icon": "Multiple.png"
    },
    {
      "id": 27,
      "name": "Ford Interfaith Network (FIN) & Ford Asian Indian Assoc. (FAIA)",
      "lead": "Michael Wright",
      "team": "Others",
      "umbrella": "Culture",
      "icon": "Culture.png"
    },
    {
      "id": 28,
      "name": "Global IT TS Community",
      "lead": "Rushad Mehta",
      "team": "Others",
      "umbrella": "Innovation",
      "icon": "Innovation.png"
    },
    {
      "id": 29,
      "name": "Ford Employee African Ancestry Network (FAAN)",
      "lead": "Dereka Johnson",
      "team": "Others",
      "umbrella": "Culture",
      "icon": "Culture.png"
    },
    {
      "id": 30,
      "name": "Ford Hispanic Network (FHN)",
      "lead": "Robert Avila",
      "team": "Others",
      "umbrella": "Culture",
      "icon": "Culture.png"
    },
    {
      "id": 31,
      "name": "PowerUp the IT Strategy",
      "lead": "Scott Antioch",
      "team": "OCIO",
      "umbrella": "Multiple",
      "icon": "Multiple.png"
    },
    {
      "id": 32,
      "name": "SkillSoft / Books 24x7",
      "lead": "Lesley Kishigian",
      "team": "N/A",
      "umbrella": "Multiple",
      "icon": "Multiple.png"
    },
    {
      "id": 33,
      "name": "IT Learning and Development",
      "lead": "Jocelyn Kroshus",
      "team": "OCIO",
      "umbrella": "Multiple",
      "icon": "Multiple.png"
    },
    {
      "id": 34,
      "name": "Application Policy Services",
      "lead": "Cynthia Dally",
      "team": "AD",
      "umbrella": "Security & Compliance",
      "icon": "Security-&-Compliance.png"
    },
    {
      "id": 35,
      "name": "BIDS - BIG Data, Business Intelligence & Visual Analytics!",
      "lead": "Kalyani Lankela",
      "team": "AD",
      "umbrella": "Multiple",
      "icon": "Multiple.png"
    },
    {
      "id": 36,
      "name": "The AIC Has a Solution For You!",
      "lead": "Michele Wysocki",
      "team": "AD",
      "umbrella": "End-to-End Effectiveness",
      "icon": "End-to-End-Effectiveness.png"
    },
    {
      "id": 37,
      "name": "Web CoE",
      "lead": "Dion Sullivan",
      "team": "AD",
      "umbrella": "Innovation",
      "icon": "Innovation.png"
    },
    {
      "id": 38,
      "name": "Collaboration Technology For the Conference Room",
      "lead": "Jamie De Biasi",
      "team": "ITO",
      "umbrella": "Innovation",
      "icon": "Innovation.png"
    },
    {
      "id": 39,
      "name": "Making Server Operations Agile via Automation",
      "lead": "Vinay Gupta",
      "team": "ITO",
      "umbrella": "Agile IT",
      "icon": "Agile-IT.png"
    },
    {
      "id": 40,
      "name": "AD Sourcing",
      "lead": "Kenya James",
      "team": "AD",
      "umbrella": "End-to-End Effectiveness",
      "icon": "End-to-End-Effectiveness.png"
    },
    {
      "id": 41,
      "name": "Information Architecture and Analytic Services",
      "lead": "David Corliss",
      "team": "OCIO",
      "umbrella": "Enterprise Architecture ",
      "icon": "Enterprise-Architecture.png"
    },
    {
      "id": 42,
      "name": "Database Engineering - One Stop Shop for Your Database Needs",
      "lead": "Bhanu Bhattacharya",
      "team": "ITO",
      "umbrella": "Enterprise Architecture",
      "icon": "Enterprise-Architecture.png"
    },
    {
      "id": 43,
      "name": "Technology Management - Open Database Management Systems",
      "lead": "Nimisha Shah",
      "team": "ITO",
      "umbrella": "Enterprise Architecture",
      "icon": "Enterprise-Architecture.png"
    },
    {
      "id": 44,
      "name": "Quality - Agile IT",
      "lead": "Debra Tocco",
      "team": "AD",
      "umbrella": "Agile IT",
      "icon": "Agile-IT.png"
    },
    {
      "id": 45,
      "name": "IT Women in Leadership & MI Council of Women in Technology",
      "lead": "Amy Bammel",
      "team": "Others",
      "umbrella": "Culture",
      "icon": "Culture.png"
    },
    {
      "id": 47,
      "name": "The Data Center is Down… Now What Do You Do?",
      "lead": "Steve Minch",
      "team": "ITO",
      "umbrella": "Security and Compliance",
      "icon": "Security-&-Compliance.png"
    },
    {
      "id": 48,
      "name": "PC Renweal",
      "lead": "Sergio Patino",
      "team": "ITO",
      "umbrella": "End-to-End Effectiveness",
      "icon": "End-to-End-Effectiveness.png"
    },
    {
      "id": 49,
      "name": "OrgCM",
      "lead": "Lou Novak",
      "team": "OCIO",
      "umbrella": "Culture",
      "icon": "Culture.png"
    },
    {
      "id": 50,
      "name": "Security Group Portal ",
      "lead": "Bryan Jager",
      "team": "ITO",
      "umbrella": "Agile IT",
      "icon": "Agile-IT.png"
    },
    {
      "id": 51,
      "name": "IT Security and Controls",
      "lead": "Matt John",
      "team": "OCIO",
      "umbrella": "Security and Compliance",
      "icon": "Security-&-Compliance.png"
    },
    {
      "id": 52,
      "name": "Global UDB: Enabling FCSD Business Across the Globe",
      "lead": "Shyamala Keshamouni",
      "team": "AD",
      "umbrella": "End-to-End Effectiveness",
      "icon": "End-to-End-Effectiveness.png"
    },
    {
      "id": 53,
      "name": "Ford Engineering Design Environment & Systems Engineering",
      "lead": "Glenny Tjahjadi",
      "team": "BIT",
      "umbrella": "End-to-End Effectiveness",
      "icon": "End-to-End-Effectiveness.png"
    }
  ],
  "seminars": [
    {
      "id": "0",
      "name": "IT Connect",
      "lead": "Marcy Klevorn and IT OCM",
      "location": "Grand Hall",
      "time": "08:00 am - 09:00 am",
      "description": "TBA"
    },
    {
      "id": "1",
      "name": "Kickoff keynote",
      "lead": "Marcy Klevorn",
      "location": "Grand Hall",
      "time": "08:00 am - 09:00 am",
      "description": "The 2015 GLITS event is being kicked off with the game show IT Feud! Marcy Klevorn will lead her team against Keith Moss’s team to see if they can guess what is foremost on the audience’s mind regarding the Big Six themes! Using an Audience Response system, the ‘studio’ audience will determine the highest ranking issues on the spot! Come join us to participate in the action and find out which team will win!"
    },
    {
      "id": "2",
      "name": "Vendor Spotlight",
      "lead": "JD Nyland - Adobe",
      "location": "Grand Hall",
      "time": "1:15 pm - 2:00 pm",
      "description": "This session will address the need to develop technology that can enable digital analysts to expand their capabilities and effectively provide the insights marketers need to run data-driven decisions that will maximize ROI. There is a massive group of digital analysts that, when equipped with the right tools, could help to close the data scientist gap. Only then can data science become accessible to the masses."
    },
    {
      "id": "3",
      "name": "Afternoon Keynote",
      "lead": "Ken Washington",
      "location": "Grand Hall",
      "time": "3:15 pm - 4:00 pm",
      "description": "Driving Innovation in every part of our business, provide an overview of Ford Smart Mobility and the progress we’ve made."
    },
    {
      "id": "4",
      "name": "EXPO Booths",
      "lead": "N/A",
      "location": "Cec Gallery",
      "time": "10:00 am - 2:30 pm",
      "description": "A showcase of the latest programs, technologies, methodologies, and other exciting initiatives happening within Ford IT. "
    },
    {
      "id": "5",
      "name": "2015 Smart Mobility PID-A-THON Exhibition",
      "lead": "N/A",
      "location": "2nd floor Lookout",
      "time": "10:00 am - 2:30 pm",
      "description": "Smart Mobility extended an open invitation to all Ford employees to contribute to experiments with a focus on the software architecture for Plug-In Devices (PID) in the first week of August. Our goal is to create and place into the PID a real time operation system that is also compatible with the inner working of a vehicle. Such an OS would be a game changing move for Ford as each PID with the OS will be programmable to individual experiments. Stop by the Smart Mobility exhibition to learn more, meet the PID-A-Thon participants and see their progress."
    }
  ]
}
